…
So here we have set our output variable to ‘trigrams’ and specified the token argument to be equal to ‘ngrams’, and we have saved this as a new dataframe called ‘df_trigrams’. That gives us a better sense of the nature of the text. We can also run a count on this after grouping by sample.

df_trigrams %>%
  group_by(sample) %>%
  count(trigrams, sort = TRUE) %>%
  ungroup()

## # A tibble: 50,935 x 3
##    sample        trigrams              n
##    <fct>         <chr>             <int>
##  1 vietnam_vet   i tell him           33
##  2 hall_female   i was in             29
##  3 college_women i was in             25
##  4 vietnam_vet   the scene changes    23
##  5 college_women and i was            22
##  6 hall_female   seemed to be         19
##  7 college_women that i was           18
##  8 hall_female   that i was           17
##  9 hall_male     seemed to be         17
## 10 hall_female   and i was            16
## # … with 50,925 more rows
Here we can see that in the Vietnam veteran dream sample, the most common three word phrase was “I tell him”, whereas for the Hall Female and College Women the most common phrase was “I was in”. Using ngrams (units larger than one word), can be useful in exploring most frequently occurring phrases. It is notable that the phrase for the Vietnam vet was in the present tense, giving a sense of the immediacy and immersion of the dream experience, whereas those most frequent phrases of the other samples are in the past tense.

Single words (Bag of words approach)

We have not removed stop-words yet as this would undermine our exploration of ngrams. But this is the next step for our df_word dataset. The anti_join() function, takes two dataframes and keeps only those words that don’t occur in both dataframes. So this forms a convenient and easy way to filter out unwanted stopwords.

df_word <- df_word %>%
  anti_join(stop_words)

Then we can count the words and sort them into descending order.

df_word %>%
  count(word, sort = TRUE)

## # A tibble: 5,331 x 2
##    word         n
##    <chr>    <int>
##  1 house      133
##  2 dream      132
##  3 remember   125
##  4 car        118
##  5 people     110
##  6 girl       108
##  7 friend     101
##  8 time        95
##  9 woman       93
## 10 mother      85
## # … with 5,321 more rows

But before we create some plots of these words, we should check for any anomalies in the word variable of df_word. The sorted count is likely to give back expected results (high frequency genuine words). But there can be other text elements that we may want to filter out. This will become obvious if we count, but don’t sort.

df_word %>%
  count(word)

## # A tibble: 5,331 x 2
##    word       n
##    <chr>  <int>
##  1 ___        1
##  2 ______     1
##  3 00         2
##  4 1          4
##  5 1,500      1
##  6 10        13
##  7 100        3
##  8 105        1
##  9 107th      1
## 10 109        1
## # … with 5,321 more rows
…
This works very nicely as well. However, to use these patterns with the tidyverse pipe, it is easier to use the fitler() function rather than str_subset(), and since it is convenient to chain steps in the pipe, we can use two calls to filter(), first by underscores and secondly by digits. And as we don’t want either of these in our dataset, we will set the “negate” argument to TRUE in both cases. An alternative method to delete the digits would be to use the capital “D” in the regex, but this way keeps our filters more uniform, both with a “negate = TRUE” argument.

df_word %>%
  filter(str_detect(word, pattern = "_", negate = TRUE)) %>%
  filter(str_detect(word, pattern = '[\\d]', negate = TRUE))

## # A tibble: 17,953 x 3
##    sample        dream_number word      
##    <fct>                <int> <chr>     
##  1 college_women            1 dreamed   
##  2 college_women            1 office    
##  3 college_women            1 directress
##  4 college_women            1 nurses    
##  5 college_women            1 nursing   
##  6 college_women            1 school    
##  7 college_women            1 forty     
##  8 college_women            1 told      
##  9 college_women            1 results   
## 10 college_women            1 i.q       
## # … with 17,943 more rows
…
There is a great deal of variability in the dream lengths, so proportions will be better than raw counts to represent the frequency of each word.

Calculating word frequencies as proportions

We will want to count proportions after stopwords are removed. We have a choice here whether we want to express the frequency of individual words by proportion of a dream or proportion of a sample. These would have different interpretations. If the texts (in our case dreams) were much longer, proportion by text might be the better way to represent the data, but I suspect proportion by dream may not be very informative. Let’s try it and see what the results look like. We will group_by() dream_number so as to create proportion by dream. Then we use a summarise function to create a word count, and we use mutate to convert this to percentage. I used a second mutate to clean this up into two decimal places with the round() function. Finally, we use the tidyverse equivalent of sort() which is the arrange() function - but because we want this to be largest-to-smallest, we also include the desc() descending function.

df_word %>%
  group_by(dream_number, word) %>%
  summarise(n = n()) %>%
  mutate(percent = (n / sum(n))*100) %>%
  mutate(percent = round(percent, 2)) %>%
  arrange(desc(percent)) %>%
  ungroup

## # A tibble: 15,500 x 4
##    dream_number word         n percent
##           <int> <chr>    <int>   <dbl>
##  1            6 remember     3    21.4
##  2          358 office       5    20  
##  3          355 dog          7    19.4
##  4          381 bus          6    18.2
##  5            2 hair         3    16.7
##  6           20 bed          3    16.7
##  7           83 store        5    16.7
##  8          260 car          6    16.7
##  9          399 test         6    15.8
## 10           13 dream        2    15.4
## # … with 15,490 more rows

So in dream number 6 the word ‘remember’ accounted for 21% of the non-stopwords used. That seems like a high proportion. It might be more useful to look at the data aggregated across samples. We can change the code to group_by sample instead of dream_number, then recalculate the most frequently occurring words as a proportion of words by sample.

df_word %>%
  group_by(sample, word) %>%
  summarise(n = n()) %>%
  mutate(percent = (n / sum(n))*100) %>%
  mutate(percent = round(percent, 2)) %>%
  arrange(desc(percent)) %>%
  ungroup()

## # A tibble: 8,118 x 4
##    sample        word         n percent
##    <fct>         <chr>    <int>   <dbl>
##  1 college_women remember    55    1.63
##  2 hall_male     dream       57    1.31
##  3 hall_male     car         51    1.17
##  4 hall_male     house       49    1.13
##  5 vietnam_vet   woman       64    1   
##  6 hall_female   remember    40    0.96
##  7 college_women car         32    0.95
##  8 college_women dream       32    0.95
##  9 hall_female   dream       38    0.92
## 10 hall_female   house       36    0.87
## # … with 8,108 more rows
…
