2.3 - Using tidytext to compare samples of dreams | Christian Ryan
…
Then the next step is to decide which sample is going to be our reference sample. This will have its column of frequencies replicated and stacked so that each of the other samples can be compared with it. When we gather(), we only include the samples to compare with the reference and not the reference itself. For simplicity, we can use the first column in our df (college_women) as our reference group and compare the other three samples to this. We might predict at this point that the hall_women will have the most similar dreams and then the hall_men, with the vietnam_vet being the most different. We can check this prediction later on when we run some correlation coefficients.

df_gather <- df_spread %>%
  gather(sample, proportion, hall_female:vietnam_vet)

We can take a quick look at the structure of the output, but we will filter out the NA values first, as we did for the df_spread dataset, as many are created for words that appear in one sample of dreams but not the other. Notice we do the same not-NA process (!is.na) on both the college_women data and the “proportion” variable. Remember that the college_women are our reference sample, so the ‘sample’ in this case tells us who provide the data in the proportion column.

df_gather %>%
  filter(!is.na(college_women) & !is.na(proportion))

## # A tibble: 1,950 x 4
##    word     college_women sample      proportion
##    <chr>            <dbl> <chr>            <dbl>
##  1 accident          0.03 hall_female       0.02
##  2 act               0.06 hall_female       0.05
##  3 afraid            0.24 hall_female       0.1 
##  4 age               0.61 hall_female       0.27
##  5 aged              0.09 hall_female       0.02
##  6 ages              0.03 hall_female       0.05
##  7 ago               0.12 hall_female       0.15
##  8 ahead             0.06 hall_female       0.02
##  9 air               0.15 hall_female       0.02
## 10 alarm             0.09 hall_female       0.02
## # … with 1,940 more rows
…
